{
    "page": 1,
    "total_results": 823,
    "total_pages": 42,
    "results": [{
        "id": 1,
        "title": "Jumanji: Welcome to the Jungle11",
        "overview": "The tables are turned as four teenagers are sucked into Jumanji's world - pitted against rhinos, black mambas and an endless variety of jungle traps and puzzles. To survive, they'll play as characters from the game.",
        "original_language": "en",
        "popularity": 345.846123,
        "poster_path": "/bXrZ5iHBEjH7WMidbUDQ0U2xbmr.jpg",
        "genres": [{
            "name": "Action"
        }],
        "credits": {
            "cast": [{
                "name": "Dwayne Johnson",
                "profile_path": "/akweMz59qsSoPUJYe7QpjAc2rQp.jpg"
            },{
                "name": "Dwayne Johnson",
                "profile_path": "/akweMz59qsSoPUJYe7QpjAc2rQp.jpg"
            }],
            "Director": { 
                "name": "Dwayne Johnson",
                "profile_path": "/akweMz59qsSoPUJYe7QpjAc2rQp.jpg"
            }
        }
    }]
}