{
    "page": 1,
    "total_results": 823,
    "total_pages": 42,
    "results": [{
        "id": 1,
        "title": "Jumanji: Welcome to the Jungle11",
        "overview": "The tables are turned as four teenagers are sucked into Jumanji's world - pitted against rhinos, black mambas and an endless variety of jungle traps and puzzles. To survive, they'll play as characters from the game.",
        "original_language": "en",
        "popularity": 345.846123,
        "poster_path": "archive/movies/jumanji/jumanji.jpg",
        "video_path": "archive/movies/jumanji/jumanji.mp4",
        "genres": [{
            "name": "Action"
        }],
        "credits": {
            "cast": [{
                "name": "Dwayne Johnson",
                "profile_path": "archive/artists/dwayne johnson.jpg"
            },{
                "name": "Dwayne Johnson",
                "profile_path": "archive/artists/dwayne johnson.jpg"
            }]
        }
    }, {
        "id": 2,
        "title": "High Heel",
        "overview": "High Heel",
        "original_language": "en",
        "popularity": 345.846123,
        "poster_path": "archive/natok/high heel/high heel.jpg",
        "video_path": "archive/natok/high heel/high heel.mp4",
        "genres": [{
            "name": "Action"
        }],
        "credits": {
            "cast": [{
                "name": "Mehazabien Chowdhury",
                "profile_path": "archive/artists/Mehazabien Chowdhury.jpg"
            },{
                "name": "Jon Kabir",
                "profile_path": "archive/artists/Jon Kabir.jpg"
            }]
        }
    },{
        "id": 2,
        "title": "High Heel",
        "overview": "High Heel",
        "original_language": "en",
        "popularity": 345.846123,
        "poster_path": "archive/natok/high heel/high heel.jpg",
        "video_path": "archive/natok/high heel/high heel.mp4",
        "genres": [{
            "name": "Action"
        }],
        "credits": {
            "cast": [{
                "name": "Mehazabien Chowdhury",
                "profile_path": "archive/artists/Mehazabien Chowdhury.jpg"
            },{
                "name": "Jon Kabir",
                "profile_path": "archive/artists/Jon Kabir.jpg"
            }]
        }
    },{
        "id": 2,
        "title": "High Heel",
        "overview": "High Heel",
        "original_language": "en",
        "popularity": 345.846123,
        "poster_path": "archive/natok/high heel/high heel.jpg",
        "video_path": "archive/natok/high heel/high heel.mp4",
        "genres": [{
            "name": "Action"
        }],
        "credits": {
            "cast": [{
                "name": "Mehazabien Chowdhury",
                "profile_path": "archive/artists/Mehazabien Chowdhury.jpg"
            },{
                "name": "Jon Kabir",
                "profile_path": "archive/artists/Jon Kabir.jpg"
            }]
        }
    }]
}